…
print("Dataset 2 - Missing Values:")
```

    ## [1] "Dataset 2 - Missing Values:"

``` r
print(missing_df2)
```

    ## # A tibble: 79 × 5
    ##    Variable    Missing_Count Missing_Percentage Present_Count Present_Percentage
    ##    <chr>               <int>              <dbl>         <int>              <dbl>
    ##  1 share_glob…         48083               95.8          2108               4.20
    ##  2 share_glob…         48083               95.8          2108               4.20
    ##  3 other_co2_…         47717               95.1          2474               4.93
    ##  4 cumulative…         46989               93.6          3202               6.38
    ##  5 other_indu…         46989               93.6          3202               6.38
    ##  6 consumptio…         45747               91.1          4444               8.85
    ##  7 consumptio…         45689               91.0          4502               8.97
    ##  8 trade_co2           45656               91.0          4535               9.04
    ##  9 trade_co2_…         45656               91.0          4535               9.04
    ## 10 consumptio…         45325               90.3          4866               9.69
    ## # ℹ 69 more rows
…
